[gd_resource type="Environment" load_steps=2 format=2]

[sub_resource type="Sky" id=1]

[resource]
background_sky = SubResource( 1 )
ambient_light_color = Color( 0.196078, 0.196078, 0.196078, 1 )
ambient_light_energy = 2.32
fog_color = Color( 0.694118, 0.431373, 0.431373, 1 )
ss_reflections_enabled = true
ssao_enabled = true
ssao_light_affect = 1.0
ssao_ao_channel_affect = 1.0
ssao_quality = 2
ssao_edge_sharpness = 0.0
adjustment_enabled = true
adjustment_brightness = 1.97
