[gd_scene load_steps=8 format=2]

[ext_resource path="res://blokoj/kosmosxipoj/scenoj/ui_armilo.tscn" type="PackedScene" id=2]
[ext_resource path="res://blokoj/kosmo/scenoj/main_camera.tscn" type="PackedScene" id=4]
[ext_resource path="res://blokoj/kosmo/scenoj/star.tscn" type="PackedScene" id=5]
[ext_resource path="res://blokoj/kosmo/skriptoj/space_ui.gd" type="Script" id=6]
[ext_resource path="res://blokoj/kosmo/skriptoj/space.gd" type="Script" id=8]
[ext_resource path="res://blokoj/kosmo/scenoj/control.tscn" type="PackedScene" id=9]

[sub_resource type="Animation" id=1]
resource_name = "open_scene"
length = 2.0
tracks/0/type = "method"
tracks/0/path = NodePath("loading")
tracks/0/interp = 1
tracks/0/loop_wrap = true
tracks/0/imported = false
tracks/0/enabled = true
tracks/0/keys = {
"times": PackedFloat32Array( 0, 2 ),
"transitions": PackedFloat32Array( 1, 1 ),
"values": [ {
"args": [  ],
"method": "show"
}, {
"args": [  ],
"method": "hide"
} ]
}
tracks/1/type = "value"
tracks/1/path = NodePath("loading:color")
tracks/1/interp = 1
tracks/1/loop_wrap = true
tracks/1/imported = false
tracks/1/enabled = true
tracks/1/keys = {
"times": PackedFloat32Array( 0, 2 ),
"transitions": PackedFloat32Array( 1, 1 ),
"update": 0,
"values": [ Color( 0, 0, 0, 1 ), Color( 0, 0, 0, 0 ) ]
}
tracks/2/type = "method"
tracks/2/path = NodePath(".")
tracks/2/interp = 1
tracks/2/loop_wrap = true
tracks/2/imported = false
tracks/2/enabled = true
tracks/2/keys = {
"times": PackedFloat32Array( 0, 2 ),
"transitions": PackedFloat32Array( 1, 1 ),
"values": [ {
"args": [  ],
"method": "show"
}, {
"args": [  ],
"method": "hide"
} ]
}

[node name="space" type="Node3D"]
script = ExtResource( 8 )

[node name="camera" parent="." instance=ExtResource( 4 )]
transform = Transform3D( 1, 0, 0, 0, 1, 0, 0, 0, 1, 0, 0, 151.894 )
distance_min = 0

[node name="star" parent="." instance=ExtResource( 5 )]

[node name="Control" parent="." instance=ExtResource( 9 )]

[node name="ui" type="Control" parent="."]
anchor_right = 1.0
anchor_bottom = 1.0
mouse_filter = 2
script = ExtResource( 6 )
__meta__ = {
"_edit_lock_": true,
"_edit_use_anchors_": false
}

[node name="loading" type="ColorRect" parent="ui"]
anchor_right = 1.0
anchor_bottom = 1.0
color = Color( 0, 0, 0, 1 )
__meta__ = {
"_edit_use_anchors_": false
}

[node name="AnimationPlayer" type="AnimationPlayer" parent="ui"]
anims/open_scene = SubResource( 1 )

[node name="ui_armilo" parent="." instance=ExtResource( 2 )]
offset_top = 1.67017
offset_bottom = 1.67017

[connection signal="load_objektoj" from="." to="." method="_on_space_load_objektoj"]
[connection signal="tree_exiting" from="." to="." method="_on_space_tree_exiting"]
