[gd_scene load_steps=3 format=2]

[ext_resource path="res://blokoj/objektoj/skriptoj/objektojTree.gd" type="Script" id=1]
[ext_resource path="res://kerno/fenestroj/tipo_a1.tscn" type="PackedScene" id=2]

[node name="Objektoj" instance=ExtResource( 2 )]
offset_left = 704.816
offset_top = 263.888
offset_right = 704.816
offset_bottom = 263.888
script = ExtResource( 1 )

[node name="VBox" parent="." index="0"]
visible = false

[node name="menuo_name" parent="VBox/HBox_top/top_texture2/HBox_buttons" index="0"]
offset_right = 131.0
text = "Объекты"

[node name="Button_fix" parent="VBox/HBox_top/top_texture2/HBox_buttons" index="1"]
visible = false

[node name="Button_" parent="VBox/HBox_top/top_texture2/HBox_buttons" index="2"]
visible = false

[node name="Button_min" parent="VBox/HBox_top/top_texture2/HBox_buttons" index="3"]
offset_left = 135.0
offset_right = 155.0

[node name="Button_full" parent="VBox/HBox_top/top_texture2/HBox_buttons" index="4"]
visible = false

[node name="Table" type="Tree" parent="VBox/body_texture" index="1"]
anchor_right = 1.0
anchor_bottom = 1.0
columns = 2
allow_reselect = true
allow_rmb_select = true
select_mode = 1
__meta__ = {
"_edit_use_anchors_": false
}

[node name="ItemList" type="ItemList" parent="VBox/body_texture" index="2"]
visible = false
anchor_right = 1.0
anchor_bottom = 1.0
__meta__ = {
"_edit_use_anchors_": false
}

[node name="Timer" type="Timer" parent="." index="1"]

[connection signal="mouse_entered" from="VBox" to="." method="_on_VBox_mouse_entered"]
[connection signal="focus_entered" from="VBox/body_texture/Table" to="." method="_focus_entered"]
[connection signal="item_selected" from="VBox/body_texture/Table" to="." method="_on_Table_item_selected"]
[connection signal="item_selected" from="VBox/body_texture/ItemList" to="." method="_on_ItemList_item_selected"]
[connection signal="timeout" from="Timer" to="." method="_on_Timer_timeout"]
