[gd_scene load_steps=3 format=2]

[ext_resource path="res://kerno/tabelo/tabelo_scroll.gd" type="Script" id=1]

[sub_resource type="StyleBoxFlat" id=1]
bg_color = Color( 0.792157, 0.054902, 0.054902, 1 )

[node name="tabelo_scroll" type="ScrollContainer"]
anchor_right = 1.0
anchor_bottom = 1.0
script = ExtResource( 1 )
__meta__ = {
"_edit_use_anchors_": false
}

[node name="Control" type="Control" parent="."]

[node name="Label2" type="Label" parent="Control"]
offset_right = 40.0
offset_bottom = 17.0
mouse_filter = 0
__meta__ = {
"_edit_use_anchors_": false
}

[node name="Label3" type="Label" parent="Control"]
offset_right = 40.0
offset_bottom = 17.0
mouse_filter = 0
theme_override_styles/normal = SubResource( 1 )
__meta__ = {
"_edit_use_anchors_": false
}
